{"zhuyejiekou": [
{"name":"饭团影视","url": "http://television.wkfile.com/api.php/app/"},
{"name":"嘀哩嘀哩","url": "http://dilidili.la/api.php/app/"},
{"name":"手指影视","url":"https://szys5678.com/mogai_api.php/v1.vod"},
{"name":"心爱影视","url":"https://xays6677.com/mogai_api.php/v1.vod"},
{"name":"天空影视","url":"https://tkys.tv/xgapp.php/v1/"},
{"name":"天空影视V2","url":"https://www.tkys.tv/xgapp.php/v2/"},
{"name":"迪迪影院V2","url":"http://dd88.icu:6080/xgapp.php/v2/"},
{"name":"1080p","url":"https://1080p.one/mogai_api.php/v1.vod"},
{"name":"1231D","url":"https://vue.app.yunboys.cn/api.php/v1.vod"},
{"name":"300看世界","url":"https://300ys.xyz/api.php/v1.vod"},
{"name":"4K影院","url":"http://1api.4kdytv.com/api.php/v1.vod"},
{"name":"80K影视","url":"https://1080p.tv/api.php/v1.vod"},
{"name":"CJT影院","url":"https://www.cjt521.com/api.php/v1.vod"},
{"name":"DC影视","url":"http://chaorenbb.com/api.php/v1.vod"},
{"name":"F7高清","url":"http://bc.haokanju1.cc/lvdou_api.php/v1.vod"},
{"name":"HG影视","url":"http://api.hgyx.vip/api.php/iptv/vod/"},
{"name":"l0l影院","url":"https://l0l.tv/api.php/v1.vod"},
{"name":"爱看美剧","url":"https://www.uumjw.com/api.php/v1.vod"},
{"name":"爱酷影视","url":"https://www.zhanlangbu.com/ruifenglb_api.php/v1.vod"},
{"name":"爱看影院","url":"http://www.a91.cm/api.php/v1.vod"},
{"name":"菜鸟追剧","url":"http://81.71.18.95:5555/mogai_api.php/v1.vod"},
{"name":"白嫖影视","url":"http://zgjxdtg.cn/api.php/v1.vod"},
{"name":"初心影视","url":"https://www.18mv.club/api.php/v1.vod"},
{"name":"独播社","url":"http://35ys.cc/api.php/v1.vod"},
{"name":"叮当影视","url":"https://tv.0573wl.com/api.php/v1.vod"},
{"name":"段友影视","url":"http://121.204.249.135:4433/ruifenglb_api.php/v1.vod"},
{"name":"段友2影视","url":"https://shangjihuoke.com/api.php/tv.vod"},
{"name":"饭后电影","url":"http://baicai.summ.vip/api.php/v1.vod"},
{"name":"飞捷影视","url":"https://www.fj6080.com/api.php/v1.vod"},
{"name":"疯狂看","url":"http://app.fkkdy.vip/mogai_api.php/v1.vod"},
{"name":"粉象视界","url":"http://42.157.129.15:34444/lvdou_api.php/v1.vod"},
{"name":"飞云视频","url":"http://app.kxtv.ltd/lvdou_api.php/v1.vod"},
{"name":"虎猫视频","url":"https://humaosp.com/mogai_api.php/v1.vod"},
{"name":"可米影视","url":"http://sj.kmys.vip/ruifenglb_api.php/v1.vod"},
{"name":"康耀影视","url":"http://124.222.126.23:999/mogai_api.php/v1.vod"},
{"name":"绿箭影视","url":"http://www.69ty.cc/mogai_api.php/v1.vod"},
{"name":"零刻影院","url":"https://ys.ling00.cn/api.php/v1.vod"},
{"name":"懒猫电影","url":"http://lanmao.lanmaoymw.cn/ruifenglb_api.php/v1.vod"},
{"name":"蓝猫影院","url":"http://www.baofu111.top/mogai_api.php/v1.vod"},
{"name":"蜜蜂影视","url":"http://app.f8tp.com/lvdou_api.php/v1.vod"},
{"name":"麻瓜视频","url":"http://aliyun.k8aa.com/mogai_api.php/v1.vod"},
{"name":"美剧虫","url":"https://meijuchong.com/api.php/v1.vod"},
{"name":"木子电影","url":"http://www.muzidy.top/mogai_api.php/v1.vod"},
{"name":"奈非迷","url":"https://app.netflixmi.com/api.php/v1.vod"},
{"name":"暖光影视","url":"https://app.bl210.com/api.php/v1.vod"},
{"name":"念念影视","url":"https://998.yuanmajs.cn/api.php/v1.vod"},
{"name":"柠柚影视","url":"http://nu.e4tv.cn/lvdou_api.php/v1.vod"},
{"name":"奇怪视频","url":"https://giguai.net/api.php/v1.vod"},
{"name":"七零动漫","url":"https://cf.70yu.cn/mogai_api.php/v1.vod"},
{"name":"瑞丰资源","url":"https://tv.yjhan.com:4433/api.php/v1.vod"},
{"name":"闪光影视","url":"http://101.35.128.192/mubai_api.php/m2.vod"},
{"name":"思乐影视","url":"https://www.huandian.top/ruifenglb_api.php/v1.vod"},
{"name":"天诚影视","url":"http://tcspvip.cn/api.php/v1.vod"},
{"name":"天天影视","url":"https://app.daishusc.com/api.php/v1.vod"},
{"name":"小白动漫","url":"http://121.62.60.222:20222/mogai_api.php/v1.vod"},
{"name":"星辰视频","url":"https://m.hj0999.com/api.php/v1.vod"},
{"name":"兄弟影视","url":"http://app.xdys.vip/mogai_api.php/v1.vod"},
{"name":"小极影视","url":"http://app.8d8q.com/api.php/v1.vod"},
{"name":"心鸾影视","url":"http://zhiyutv.xyz/api.php/v1.vod"},
{"name":"雪人影视","url":"https://zy.qd234.cn/mogai_api.php/v1.vod"},
{"name":"益达影院","url":"http://luobu.yss6080.com/mogai_api.php/v1.vod"},
{"name":"雨果影视","url":"http://2.yhys63.com/api.php/v1.vod"},
{"name":"影视大全","url":"https://xc.xixi2yy.xyz/mogai_api.php/v1.vod"},
{"name":"月色影视","url":"http://69ty.cc/mogai_api.php/v1.vod"},
{"name":"优视影视","url":"http://app.ysys.asia/lvdou_api.php/v1.vod"},
{"name":"影阅阁","url":"http://221.236.18.12:665/api.php/v1.vod"},
{"name":"新追剧吧","url":"http://wtv.fit/api.php/v1.vod"},
{"name":"51视频","url":"http://51shipin.cc/mogai_api.php/v1.vod"},
{"name":"JDODO","url":"https://appys.jdodo.xyz/mogai_api.php/v1.vod"},
{"name":"QC影视","url":"https://www.qcsvip.com/mogai_api.php/v1.vod"},
{"name":"U5影视","url":"https://appx.uy07.com/api.php/v1.vod"},
{"name":"XG影视","url":"http://cms.xggm.top/ruifenglb_api.php/v1.vod"},
{"name":"yoyo","url":"http://jx.wnvod.net/ruifenglb_api.php/v1.vod"},
{"name":"阿里影视","url":"http://aliys.cn:90/api.php/v1.vod"},
{"name":"艾特影视","url":"https://www.aitee.cc/api.php/v1.vod"},
{"name":"嗷呜影院","url":"http://aowu.pro/api.php/v1.vod"},
{"name":"爱影视","url":"https://www.hzlff.cn/api.php/v1.vod"},
{"name":"安云影视","url":"http://api.vue8.cc/lvdou_api.php/v1.vod"},
{"name":"哔哔影院","url":"http://baofu111.top/mogai_api.php/v1.vod"},
{"name":"多啦咪PRO","url":"http://yuenos-pro.miyuen.cn/qingdoujiekou.php/v1.vod"},
{"name":"比邻影视","url":"http://0hzy.cn:9990/mogai_api.php/v1.vod"},
{"name":"大头影视","url":"http://dy.idsao.com/mogai_api.php/v1.vod"},
{"name":"灯塔影视","url":"https://cc.hwh.ink/lvdou_api.php/v1.vod"},
{"name":"豆渣影视","url":"http://douzhayss.cc/api.php/v1.vod"},
{"name":"恒大影视","url":"https://www.hdys.org/api.php/v1.vod"},
{"name":"寒枫视频","url":"https://vip.shenyunwl.cn/mogai_api.php/v1.vod"},
{"name":"辉哥影视","url":"https://app.y.hgyule8.com/api.php/v1.vod"},
{"name":"黄河影视","url":"http://i.ledu8.cn/api.php/v1.vod"},
{"name":"火星人","url":"https://www.huoxing9.com/mogai_api.php/v1.vod"},
{"name":"晗先森","url":"https://hantv.top/api.php/v1.vod"},
{"name":"盒子影院","url":"http://i.nihaohezi.com/api.php/v1.vod"},
{"name":"筋斗云","url":"https://tv.jindcloud.com/api.php/v1.vod"},
{"name":"极光影院","url":"http://app.winxz.cc/api.php/v1.vod"},
{"name":"聚合视频","url":"https://app.jhystv.com/mogai_api.php/v1.vod"},
{"name":"久久影视","url":"http://s9t9.com/api.php/v1.vod"},
{"name":"极酷视频","url":"https://jiku.vip/mogai_api.php/v1.vod"},
{"name":"剧迷视频","url":"http://pan.hzafw.com/api.php/v1.vod"},
{"name":"极品影视","url":"http://jpsb.yhzy.xyz/api.php/iptv/vod/"},
{"name":"橘子影视","url":"http://jz.juzidy.vip/mogai_api.php/v1.vod"},
{"name":"看剧吧","url":"http://app.ishen520.com/api.php/v1.vod"},
{"name":"看看剧","url":"https://www.kankanju.cn/api.php/v1.vod"},
{"name":"绿豆视频","url":"https://v.lvdoui.cn/mogai_api.php/v1.vod"},
{"name":"蓝光视频","url":"http://vip.91iqiyi.com/mogai_api.php/v1.vod"},
{"name":"冷视TV","url":"https://len.tv/api.php/v1.vod"},
{"name":"免费影视","url":"http://111.229.120.180:88/lvdou_api.php/v1.vod"},
{"name":"美剧范","url":"http://ttzmz.net/api.php/v1.vod"},
{"name":"喵乐影视","url":"http://miaoleys.com/api.php/v1.vod"},
{"name":"奈飞中文","url":"https://www.naifei.org/api.php/v1.vod"},
{"name":"皮皮动漫","url":"http://dm.muying.me/mogai_api.php/v1.vod"},
{"name":"奇趣影视","url":"https://app.qiqu.me/mogai_api.php/v1.vod"},
{"name":"任性看","url":"https://renxingkan.net/api.php/v1.vod"},
{"name":"思奇影视","url":"http://app.siqitv.vip/mogai_api.php/v1.vod"},
{"name":"三日影院","url":"https://www.3ri.net/api.php/v1.vod"},
{"name":"神马影视","url":"http://xs.78tv.cc/mogai_api.php/v1.vod"},
{"name":"视听星球","url":"http://zjyapijzys.shynwlkj.com/api.php/v1.vod"},
{"name":"淘剧社","url":"https://app.shuhai99.com/api.php/v1.vod"},
{"name":"天天视频","url":"http://app.qianju.cc/api.php/v1.vod"},
{"name":"兔子窝","url":"http://cj.huimaojia.com:12345/mogai_api.php/v1.vod"},
{"name":"我爱跟剧","url":"https://www.genmov.com/mogai_api.php/v1.vod"},
{"name":"吾爱影视","url":"http://app.5lp.net/api.php/v1.vod"},
{"name":"蜗牛动漫","url":"http://woniudm.woniu.cyou:20000/mogai_api.php/v1.vod"},
{"name":"寻常影视","url":"http://tv.91ymz.cn/api.php/v1.vod"},
{"name":"熊猫动漫","url":"http://dongman.k8aa.com/mogai_api.php/v1.vod"},
{"name":"熊猫视频","url":"http://anegh.com/lvdou_api.php/v1.vod"},
{"name":"小鸟动漫","url":"http://xydm.baicai.buzz/mogai_api.php/v1.vod"},
{"name":"玺娜影视","url":"https://pp.wxina.cn/api.php/v1.vod"},
{"name":"小蜻蜓","url":"http://3ketv.com/mogai_api.php/v1.vod"},
{"name":"星球视频","url":"http://119.29.121.48:8088/api.php/v1.vod"},
{"name":"玺心影视","url":"https://tv.arbd.cn/api.php/v1.vod"},
{"name":"云城影院","url":"https://ayyf.cn/mubai_api.php/m2.vod"},
{"name":"月儿影视","url":"https://yue52.xyz/api.php/v1.vod"},
{"name":"樱花动漫","url":"https://www.dmwu.cc/api.php/v1.vod"},
{"name":"云梦影视","url":"https://yun.yunl.xyz/mogai_api.php/v1.vod"},
{"name":"影视热剧","url":"http://lb.26ys.cn/api.php/v1.vod"},
{"name":"渔渔影视","url":"http://luobo.yugenye.site/api.php/v1.vod"},
{"name":"优优影院","url":"http://xin.jjsvip.cc/mogai_api.php/v1.vod"},
{"name":"柚子视频","url":"http://yz.26ys.cn/api.php/v1.vod"},
{"name":"鱼仔影视","url":"http://yuzaio.top/api.php/v1.vod"},
{"name":"追剧达人","url":"https://www.zhuijudaren.com/mogai_api.php/v1.vod"},
{"name":"追剧猫","url":"http://tv.kmtvb.com/api.php/v1.vod"},
{"name":"侦探影视","url":"http://ys.huangguay.com/mogai_api.php/v1.vod"},
{"name":"猪猪影院","url":"http://app.2zdyy.com/api.php/v1.vod"},
{"name":"星空影视","url":"https://xkys.tv/xgapp.php/v1/"},
{"name":"913e影视","url":"http://www.913e.net/xgapp.php/v1/"},
{"name":"柚子视频","url":"http://yz.26ys.cn/api.php/v1.vod"},
{"name":"无名影视","url":"http://ccxg.xazhutu.com/xgapp.php/v1/"},
{"name":"思奇影视","url":"http://app.siqitv.vip/mogai_api.php/v1.vod"},
{"name":"艾特影视","url":"https://www.aitee.cc/api.php/v1.vod"},
{"name":"TV酷","url":"https://www.u23c.com/api.php/app/"},
{"name":"橘子影视","url":"http://jz.juzidy.vip/mogai_api.php/v1.vod"},
{"name":"麻瓜视频","url":"http://aliyun.k8aa.com/mogai_api.php/v1.vod"},
{"name":"辉哥影视","url":"https://app.y.hgyule8.com/api.php/v1.vod"},
{"name":"极光影院","url":"http://app.winxz.cc/api.php/v1.vod"},
{"name":"美剧虫","url":"https://meijuchong.com/api.php/v1.vod"},
{"name":"vip影院","url":"http://360yy.cn/api.php/app/"},
{"name":"爱迪影视","url":"https://aidi.tv/xgapp.php/v1/"},
{"name":"看剧吧","url":"http://app.ishen520.com/api.php/v1.vod"},
{"name":"播放呀","url":"https://www.bofangya.com/xgapp.php/v1/"},
{"name":"苍蓝资源","url":"https://vip.ruifenglb.com:4433/api.php/app/"},
{"name":"段友影视","url":"http://js.66app.me/api.php/app/"},
{"name":"非凡TV","url":"https://app.feifan.live:2087/xgapp.php/v1/"},
{"name":"DC影视","url":"http://chaorenbb.com/api.php/v1.vod"},
{"name": "神马影视","url": "http://summ.vip/api.php/v1.vod"},
{"name": "追剧吧","url": "http://zhuiju8.vip/api.php/v1.vod"},
{"name":"海胆影视","url":"http://xf123.cc/api.php/app/"},
{"name":"海棠视频","url":"https://www.haitangsp.net/api.php/app/"},
{"name":"京广航","url":"https://www.jingguanhang.com/api.php/app/"},
{"name":"久九影视","url":"https://api.58qxk.cn/xgapp.php/v1/"},
{"name":"冷视TV","url":"https://len.tv/api.php/v1.vod"},
{"name":"看365","url":"https://www.kan365.xyz/api.php/app/"},
{"name":"快云影音","url":"https://www.kuaiyunyy.com/api.php/app/"},
{"name":"灵狐影视","url":"http://x.dmntv.com/api.php/app/"},
{"name":"抹茶猪","url":"https://www.mczdyw.com/api.php/app/"},
{"name":"萌蛋蛋","url":"http://app.mengdandan.com/xgapp.php/v1/"},
{"name":"莫扎兔","url":"http://www.mozhatu.xyz/api.php/app/"},
{"name":"躺平影视","url":"http://www.lltpys.com/api.php/app/"},
{"name":"T神影视","url":"https://deity.fun/api.php/app/"},
{"name":"我爱电影","url":"http://xg.5imv.net/api.php/app/"},
{"name":"小七影视","url":"http://ys.kd60.cn/api.php/app/"},
{"name":"(无名)","url":"http://ccxg.xazhutu.com/xgapp.php/v1/"},
{"name":"免费看","url":"https://freekan.vip/mogai_api.php/v1.vod"},
{"name":"暖光影视","url":"https://app.bl210.com/api.php/v1.vod"},
{"name":"小极影视","url":"http://app.8d8q.com/api.php/v1.vod"},
{"name":"月色影视","url":"http://69ty.cc/mogai_api.php/v1.vod"},
{"name":"影阅阁","url":"http://221.236.18.12:665/api.php/v1.vod"},
{"name":"U5影视","url":"https://appx.uy07.com/api.php/v1.vod"},
{"name":"yoyo","url":"http://jx.wnvod.net/ruifenglb_api.php/v1.vod"},
{"name":"爱影视","url":"https://www.hzlff.cn/api.php/v1.vod"},
{"name":"比邻影视","url":"http://0hzy.cn:9990/mogai_api.php/v1.vod"},
{"name":"大头影视","url":"http://dy.idsao.com/mogai_api.php/v1.vod"},
{"name":"豆渣影视","url":"http://douzhayss.cc/api.php/v1.vod"},
{"name":"黄河影视","url":"http://i.ledu8.cn/api.php/v1.vod"},
{"name":"林谷影视","url":"http://ys.linguyy.xyz/mogai_api.php/v1.vod"},
{"name":"段友影视","url":"https://shangjihuoke.com/api.php/v1.vod"},
{"name":"饭后电影","url":"http://summ.vip/api.php/v1.vod"},
{"name":"虎猫视频","url":"https://humaosp.com/mogai_api.php/v1.vod"},
{"name":"绿箭影视","url":"http://www.69ty.cc/mogai_api.php/v1.vod"},
{"name":"益达影院","url":"http://luobu.yss6080.com/mogai_api.php/v1.vod"},
{"name":"蓝光视频","url":"http://vip.91iqiyi.com/mogai_api.php/v1.vod"},
{"name":"美剧范","url":"http://ttzmz.net/api.php/v1.vod"},
{"name":"皮皮动漫","url":"http://dm.muying.me/mogai_api.php/v1.vod"},
{"name":"视听星球","url":"http://zjyapijzys.shynwlkj.com/api.php/v1.vod"},
{"name":"淘剧社","url":"https://app.shuhai99.com/api.php/v1.vod"},
{"name":"天天视频","url":"http://app.qianju.cc/api.php/v1.vod"},
{"name":"兔子窝","url":"http://cj.huimaojia.com:12345/mogai_api.php/v1.vod"},
{"name":"吾爱影视","url":"http://app.5lp.net/api.php/v1.vod"},
{"name":"小蜻蜓","url":"http://3ketv.com/mogai_api.php/v1.vod"},
{"name":"追剧猫","url":"http://tv.kmtvb.com/api.php/v1.vod"},
{"name":"猪猪影院","url":"http://app.2zdyy.com/api.php/v1.vod"},
{"name":"渔渔影视","url":"http://luobo.yugenye.site/api.php/v1.vod"}],
"zhujiexi": "http://api.vip123kan.vip/?url=",
"beiyongjiexi": "https://nbjx.vip/?url=",
"renrenjiexi": "https://jx.renrenmi.cc/?url=",
"LTjiexi": "https://che.kmys.top/1.php?url=",
"wuduyunjiexi": "https://jf.1080p.icu:3377/home/api?type=ys&uid=139706&key=cgjlntwxzAEMQTUVWX&url=",
"dianshizhibo": "http://42.193.55.242/tv/xzb.php",
"caijizhan": "http://101.34.7.151:600/api.php",
"tiyuzhibo": "https://m.zhibo8.net",
"reci": "https://v.sogou.com",
"lunbofanye": "https://www.douyu.com/gapi/rkc/directory/mixList/2_1008/",
"lunboqianzhui": "https://m.douyu.com",
"Home": {
"dy": {
"class": "全部$&class=#喜剧$&class=喜剧#爱情$&class=爱情#动作$&class=动作#枪战$&class=枪战#犯罪$&class=犯罪#惊悚$&class=惊悚#恐怖$&class=恐怖#悬疑$&class=悬疑#动画$&class=动画#家庭$&class=家庭#奇幻$&class=奇幻#魔幻$&class=魔幻#科幻$&class=科幻#战争$&class=战争#青春$&class=青春#剧情$&class=剧情#西部$&class=西部#l理$&class=l理#纪录$&class=记录#音乐$&class=音乐#歌舞$&class=歌舞#运动$&class=运动#历史$&class=历史#武侠$&class=武侠#冒险$&class=冒险#传记$&class=传记",
"area": "全部$&area=#内地$&area=内地#香港$&area=香港#美G$&area=美国#欧洲$&area=欧洲#韩国$&area=韩国#日本$&area=日本#泰国$&area=泰国#印度$&area=印度#其它$&area=其它",
"year": "全部$&lang=&year=#2022$&lang=&year=2022#2021$&lang=&year=2021#2020$&lang=&year=2020#2019$&lang=&year=2019#2018$&lang=&year=2018#2017$&lang=&year=2017#2016-2011$&lang=&year=2016#2010-2000$&lang=&year=2010#90年代$&lang=&year=90#80年代$&lang=&year=80#更早$&lang=&year=70"
},
"dsj": {
"class": "全部$&class=#古装$&class=古装#言情$&class=言情#武侠$&class=武侠#偶像$&class=偶像#家庭$&class=家庭#青春$&class=青春#都市$&class=都市#喜剧$&class=喜剧#战争$&class=战争#军旅$&class=军旅#谍战$&class=谍战#悬疑$&class=悬疑#罪案$&class=罪案#穿越$&class=穿越#宫廷$&class=宫廷#历史$&class=历史#神话$&class=神话#科幻$&class=科幻#年代$&class=年代#农村$&class=农村#商战$&class=商战#剧情$&class=剧情#奇幻$&class=奇幻",
"area": "全部$&area=#内地$&area=内地#香港$&area=香港#美国$&area=美国#英国$&area=英国#韩国$&area=韩国#日本$&area=日本#泰国$&area=泰国#台湾$&area=台湾#其它$&area=其它",
"year": "全部$&lang=&year=#2022$&lang=&year=2022#2021$&lang=&year=2021#2020$&lang=&year=2020#2019$&lang=&year=2019#2018$&lang=&year=2018#2017$&lang=&year=2017#2016-2011$&lang=&year=2016#2010-2000$&lang=&year=2010#90年代$&lang=&year=90#80年代$&lang=&year=80#更早$&lang=&year=70"
},
"zy": {
"class": "全部$&class=#表演$&class=表演#播报$&class=播报#访谈$&class=访谈#体验$&class=体验#养成$&class=养成#游戏$&class=游戏#亲子$&class=亲子#美食$&class=美食#情感$&class=情感#选秀$&class=选秀#益智$&class=益智#晚会$&class=晚会#音乐$&class=音乐#文化$&class=文化#喜剧$&class=喜剧#曲艺$&class=曲艺#职场$&class=职场#脱口秀$&class=脱口秀#真人秀$&class=真人秀#竞技$&class=竞技#体育$&class=体育#萌宠$&class=萌宠",
"area": "全部$&area=#内地$&area=内地#香港$&area=香港#美国$&area=美国#韩国$&area=韩国#日本$&area=日本#台湾$&area=台湾",
"year": "全部$&lang=&year=#2022$&lang=&year=2022#2021$&lang=&year=2021#2020$&lang=&year=2020#2019$&lang=&year=2019#2018$&lang=&year=2018#2017$&lang=&year=2017#2016-2011$&lang=&year=2016#2010-2000$&lang=&year=2010#90年代$&lang=&year=90#80年代$&lang=&year=80#更早$&lang=&year=70"
},
"dm": {
"class": "全部$&class=#搞笑$&class=搞笑#番剧$&class=番剧#国创$&class=国创#大电影$&class=大电影#热血$&class=热血#催泪$&class=催泪#治愈$&class=治愈#励志$&class=励志#机战$&class=机战#战斗$&class=战斗#恋爱$&class=恋爱#科幻$&class=科幻#奇幻$&class=奇幻#魔幻$&class=魔幻#推理$&class=推理#校园$&class=校园#日常$&class=日常#经典$&class=经典#历史$&class=历史#美食$&class=美食#职场$&class=职场#偶像$&class=偶像#泡面$&class=泡面#冒险$&class=冒险#竞技$&class=竞技#武侠$&class=武侠#玄幻$&class=玄幻",
"area": "全部$&area=#内地$&area=内地#日本$&area=日本#欧美$&area=欧美#其它$&area=其它",
"year": "全部$&lang=&year=#2022$&lang=&year=2022#2021$&lang=&year=2021#2020$&lang=&year=2020#2019$&lang=&year=2019#2018$&lang=&year=2018#2017$&lang=&year=2017#2016-2011$&lang=&year=2016#2010-2000$&lang=&year=2010#90年代$&lang=&year=90#80年代$&lang=&year=80#更早$&lang=&year=70"
}
},
"zidingyi": {"name": "自定义ZXZJ接口",
"url": "https://www.zxzj.fun/",
"fenlei": "电视剧$/show/2--------#电影$/show/1--------#综艺$/show/3--------#动漫$/show/4--------#动作片$/show/1---动作-----#喜剧片$/show/1---喜剧-----#爱情片$/show/1---爱情-----#科幻片$/show/1---科幻-----#奇幻片$/show/1---奇幻-----#恐怖片$/show/1---恐怖-----#剧情片$/show/1---剧情-----#战争片$/show/1---战争-----#冒险片$/show/1---冒险-----#国产剧$/show/2-中国大陆-------#台剧$/show/2-中国台湾-------#港剧$/show/2-中国香港-------#韩剧$/show/2-韩国-------#日剧$/show/2-日本-------#美剧$/show/2-美国-------#英剧$/show/2-英国-------",
"houzhui": "---.html",
"shifouercijiequ": "0",
"jiequqian": "空",
"jiequhou": "空",
"jiequshuzuqian": "data",
"jiequshuzuhou": "</h4>",
"tupianqian": "original=\"",
"tupianhou": "\"",
"biaotiqian": "title=\"",
"biaotihou": "\"",
"lianjieqian": "href=\"",
"lianjiehou": "\"",
"sousuoqian": "/index.php/ajax/suggest?mid=1&wd=",
"sousuohou": "&limit=500",
"sousuohouzhui": "/detail/",
"ssmoshi": "0",
"sousuoshifouercijiequ": "0",
"jspic": "pic",
"jsname": "name",
"jsid": "id",
"ssjiequqian": "空",
"ssjiequhou": "空",
"ssjiequshuzuqian": "空",
"ssjiequshuzuhou": "空",
"sstupianqian": "空",
"sstupianhou": "空",
"ssbiaotiqian": "空",
"ssbiaotihou": "空",
"sslianjieqian": "空",
"sslianjiehou": "空",
"bfshifouercijiequ": "0",
"bfjiequqian": "空",
"bfjiequhou": "空",
"bfjiequshuzuqian": "class=\"stui-content__playlist",
"bfjiequshuzuhou": "</ul>",
"zhuangtaiqian": "class=\"data\">总集数：",
"zhuangtaihou": "</p>",
"daoyanqian": "class=\"data\">类型：",
"daoyanhou": "</p>",
"zhuyanqian": "class=\"data\">主演：",
"zhuyanhou": "</p>",
"juqingqian": "class=\"detail-content\"",
"juqinghou": "</span>",
"bfyshifouercijiequ": "0",
"bfyjiequqian": "空",
"bfyjiequhou": "空",
"bfyjiequshuzuqian": "<a",
"bfyjiequshuzuhou": "/a>",
"bfbiaotiqian": ">",
"bfbiaotihou": "<",
"bflianjieqian": "href=\"",
"bflianjiehou": "\""}}